day,program_name,start_time,end_time
1,'MOVIES TRAILER',6:00,6:30
1,'POP SONGS',6:30,8:00
1,'NRN PLAYLIST ',8:00,9:00
1,'TEEJ BISHESH GEET',9:00,11:00
1,'FILMY GEET ',11:00,12:30
1,'MOVIE SHOW TIME',12:30,18:00
1,'MOVIES TRAILER',18:00,18:30
1,'POP SONGS',18:30,20:00
1,'NRN PLAYLIST ',20:00,21:00
1,'TEEJ BISHESH GEET',21:00,23:00
1,'FILMY GEET ',23:00,24:30
2,'MOVIES TRAILER',6:00,6:30
2,'POP SONGS',6:30,8:00
2,'NRN PLAYLIST' ,8:00,9:00
2,'TEEJ BISHESH GEET',9:00,11:00
2,'FILMY GEET ,11:00,12:30
2,'MOVIE SHOW TIME,12:30,18:00
2,'MOVIES TRAILER,18:00,18:30
2,'POP SONGS,18:30,20:00
2,'NRN PLAYLIST' ,20:00,21:00
2,'TEEJ BISHESH GEET',21:00,23:00
3,'MOVIES TRAILER',6:00,6:30
3,'POP SONGS',6:30,8:00
3,'NRN PLAYLIST' ,8:00,9:00
3,'TEEJ BISHESH GEET',9:00,11:00
3,'FILMY GEET' ,11:00,12:30
3,'MOVIE SHOW TIME',12:30,18:00
3,'MOVIES TRAILER',18:00,18:30
3,'POP SONGS',18:30,20:00
3,'NRN PLAYLIST' ,20:00,21:00
3,'TEEJ BISHESH GEET',21:00,23:00
4,'MOVIES TRAILER',6:00,6:30
4,'POP SONGS',6:30,8:00
4,'NRN PLAYLIST' ,8:00,9:00
4,'TEEJ BISHESH GEET',9:00,11:00
4,'FILMY GEET' ,11:00,12:30
4,'MOVIE SHOW TIME',12:30,18:00
4,'MOVIES TRAILER',18:00,18:30
4,'POP SONGS',18:30,20:00
4,'NRN PLAYLIST' ,20:00,21:00
4,'TEEJ BISHESH GEET',21:00,23:00
4,'FILMY GEET' ,23:00,0:30
5,'MOVIES TRAILER',6:00,6:30
5,'POP SONGS',6:30,8:00
5,'NRN PLAYLIST' ,8:00,9:00
5,'TEEJ BISHESH GEET',9:00,11:00
5,'FILMY GEET' ,11:00,12:30
5,'MOVIE SHOW TIME',12:30,18
5,'MOVIES TRAILER',18:00,18:30
5,'POP SONGS',18:30,20:00
5,'NRN PLAYLIST ',20:00,21:00
5,'TEEJ BISHESH GEET',21:00,23:00
6,'MOVIES TRAILER',6:00,6:30
6,'POP SONGS',6:30,8:00
6,'NRN PLAYLIST ',8:00,9:00
6,'TEEJ BISHESH GEET',9:00,11:00
6,'FILMY GEET ',11:00,12:30
6,'MOVIE SHOW TIME',12:30,18:00
6,'MOVIES TRAILER',18:00,18:30
6,'POP SONGS',18:30,20:00
6,'NRN PLAYLIST ',20:00,21:00
6,'TEEJ BISHESH GEET',21:00,23:00
7,'MOVIES TRAILER',6:00,6:30
7,'POP SONGS',6:30,8:00
7,'NRN PLAYLIST ',8:00,9:00
7,'TEEJ BISHESH GEET',9:00,11:00
7,'FILMY GEET ',11:00,12:30
7,'MOVIE SHOW TIME',12:30,18:00
7,'MOVIES TRAILER',18:00,18:30
7,'POP SONGS',18:30,20:00
7,'NRN PLAYLIST ',20:00,21:00
7,'TEEJ BISHESH GEET',21:00,23:00
7,'FILMY GEET ',23:00,24:30